<?xml version="1.0" encoding="utf-8"?>
<!-- Generator: Adobe Illustrator 19.0.0, SVG Export Plug-In . SVG Version: 6.00 Build 0)  -->
<svg version="1.2" baseProfile="tiny" xmlns="http://www.w3.org/2000/svg" xmlns:xlink="http://www.w3.org/1999/xlink" x="0px"
	 y="0px" viewBox="0 0 135.5 145.4" xml:space="preserve">
<g id="Layer_1">
	<path fill="#9D1F60" d="M44,67.6c2.8,20,17.8,44.3,47.8,47.2c-9.4,6.5-20.9,10.3-33.2,10.3C26.2,125.2,0,99,0,66.6
		S26.2,8.1,58.6,8.1c5.6,0,11,0.8,16.1,2.2C49.7,23.4,41.6,43,44,67.6z"/>
	<path fill="#9D1F60" d="M125.3,25.3c0,9.1-4.8,17-12,21.5c-4.4-12.2-13.9-27.2-34.8-35.1C83,4.7,91,0,100,0
		C114,0,125.3,11.3,125.3,25.3z"/>
	<path fill="#D92E65" d="M113.5,47.1c-3.9,2.4-8.4,3.7-13.3,3.7c-14.1,0-25.5-11.4-25.5-25.5c0-5,1.4-9.6,3.9-13.5
		C94.5,15.5,110.7,34.7,113.5,47.1z"/>
	<path fill="#9D1F60" d="M110.4,115.3c-4.6,10.4-16.3,21.2-33,18.3c4.1,4.9,9.7,8.7,16.4,10.6c17.5,4.9,35.6-5.3,40.5-22.8
		s-5.3-35.6-22.8-40.5c-3-0.8-6-1.2-9-1.2C114,90.5,115.4,102.3,110.4,115.3z"/>
	<path fill="#9D1F60" d="M72.8,80.1c-1.4,4.9,0,9.9,3.2,13.4c4.2-5.9,11.6-12.6,24.1-13.7c-1.4-4.5-4.9-8.3-9.8-9.6
		C82.8,68.1,74.9,72.6,72.8,80.1z"/>
	<path fill="#D92E65" d="M100.2,79.9c0.7,2.5,0.8,5.2,0,7.9c-2.1,7.6-10,12.1-17.7,10c-2.6-0.7-4.9-2.2-6.6-4
		C79.3,87.4,90.9,79.4,100.2,79.9z"/>
</g>
<g id="Layer_2">
</g>
</svg>
