<?xml version="1.0" encoding="utf-8"?>
<!-- Generator: Adobe Illustrator 19.0.0, SVG Export Plug-In . SVG Version: 6.00 Build 0)  -->
<svg version="1.2" baseProfile="tiny" xmlns="http://www.w3.org/2000/svg" xmlns:xlink="http://www.w3.org/1999/xlink" x="0px"
	 y="0px" viewBox="0 0 169.8 40.1" xml:space="preserve">
<g id="Layer_1">
	<g>
		<path fill="#9D1F60" d="M20.9,20.1h15.3v1.2c0,2.8-0.3,5.2-1,7.4c-0.6,2-1.7,3.8-3.2,5.6c-3.4,3.9-7.8,5.8-13.1,5.8
			c-5.2,0-9.6-1.9-13.3-5.6C1.8,30.7,0,26.2,0,20.9C0,15.5,1.9,11,5.6,7.2C9.4,3.5,14,1.6,19.4,1.6c2.9,0,5.6,0.6,8.1,1.8
			c2.4,1.2,4.8,3.1,7.1,5.8l-4,3.8c-3-4-6.7-6.1-11.1-6.1c-3.9,0-7.2,1.4-9.9,4.1c-2.7,2.7-4,6-4,10c0,4.1,1.5,7.5,4.4,10.2
			c2.8,2.5,5.8,3.7,9,3.7c2.8,0,5.2-0.9,7.4-2.8c2.2-1.9,3.4-4.1,3.7-6.7h-9.2V20.1z"/>
		<path fill="#9D1F60" d="M38.1,36.7c0-0.9,0.3-1.7,1-2.3c0.7-0.7,1.4-1,2.4-1s1.7,0.3,2.4,1c0.7,0.7,1,1.4,1,2.4
			c0,0.9-0.3,1.7-1,2.4c-0.6,0.6-1.4,1-2.4,1c-0.9,0-1.7-0.3-2.4-1C38.4,38.4,38.1,37.6,38.1,36.7z"/>
		<path fill="#9D1F60" d="M75.2,30.4H59.4l-4.1,9h-6L67.6,0l17.7,39.4h-6.1L75.2,30.4z M73,25.1l-5.5-12.6l-5.8,12.6H73z"/>
		<path fill="#9D1F60" d="M90.9,36.7c0-0.9,0.3-1.7,1-2.3c0.7-0.7,1.4-1,2.4-1s1.7,0.3,2.4,1c0.7,0.7,1,1.4,1,2.4
			c0,0.9-0.3,1.7-1,2.4c-0.6,0.6-1.4,1-2.4,1c-0.9,0-1.7-0.3-2.4-1C91.2,38.4,90.9,37.6,90.9,36.7z"/>
		<path fill="#9D1F60" d="M110.1,2.3v31.8H121v5.3h-16.5v-37H110.1z"/>
		<path fill="#9D1F60" d="M126.1,36.7c0-0.9,0.3-1.7,1-2.3c0.7-0.7,1.4-1,2.4-1s1.7,0.3,2.4,1c0.7,0.7,1,1.4,1,2.4
			c0,0.9-0.3,1.7-1,2.4c-0.6,0.6-1.4,1-2.4,1c-0.9,0-1.7-0.3-2.4-1C126.5,38.4,126.1,37.6,126.1,36.7z"/>
		<path fill="#9D1F60" d="M159,7.8l-4.5,2.7c-0.8-1.5-1.7-2.4-2.4-2.9c-0.8-0.5-1.8-0.8-3.1-0.8c-1.6,0-2.8,0.4-3.9,1.3
			c-1,0.9-1.5,2-1.5,3.3c0,1.8,1.3,3.3,4,4.4l3.7,1.5c3,1.2,5.2,2.7,6.6,4.5c1.4,1.8,2.1,3.9,2.1,6.4c0,3.4-1.1,6.2-3.4,8.4
			c-2.3,2.2-5.1,3.4-8.5,3.4c-3.2,0-5.9-1-8-2.9c-2.1-1.9-3.4-4.6-3.9-8l5.7-1.2c0.3,2.2,0.7,3.7,1.3,4.5c1.2,1.6,2.8,2.4,5,2.4
			c1.7,0,3.2-0.6,4.3-1.8s1.7-2.6,1.7-4.4c0-0.7-0.1-1.4-0.3-2c-0.2-0.6-0.5-1.2-0.9-1.7c-0.4-0.5-1-1-1.6-1.4
			c-0.7-0.4-1.5-0.9-2.4-1.3l-3.6-1.5c-5.1-2.1-7.6-5.3-7.6-9.4c0-2.8,1.1-5.1,3.2-7c2.1-1.9,4.8-2.8,7.9-2.8
			C153.3,1.6,156.6,3.7,159,7.8z"/>
		<path fill="#9D1F60" d="M163.2,36.7c0-0.9,0.3-1.7,1-2.3c0.7-0.7,1.4-1,2.4-1s1.7,0.3,2.4,1c0.7,0.7,1,1.4,1,2.4
			c0,0.9-0.3,1.7-1,2.4c-0.6,0.6-1.4,1-2.4,1c-0.9,0-1.7-0.3-2.4-1C163.5,38.4,163.2,37.6,163.2,36.7z"/>
	</g>
</g>
<g id="Layer_2">
</g>
</svg>
