<?xml version="1.0" encoding="utf-8"?>
<!-- Generator: Adobe Illustrator 19.0.0, SVG Export Plug-In . SVG Version: 6.00 Build 0)  -->
<svg version="1.1" id="Layer_1" xmlns="http://www.w3.org/2000/svg" xmlns:xlink="http://www.w3.org/1999/xlink" x="0px" y="0px"
	 viewBox="-290 382 30 30" style="enable-background:new -290 382 30 30;" xml:space="preserve">
<style type="text/css">
	.st0{fill:#D92E66;}
</style>
<g>
	<g>
		<path class="st0" d="M-277.9,396.6l-2.1,2.1l-0.2-0.2c-1.4-1.4-3.6-1.4-5,0l-3.8,3.8c-1.4,1.4-1.4,3.7,0,5l1.1,1.1
			c0.7,0.7,1.6,1,2.5,1c0.9,0,1.8-0.3,2.5-1l3.8-3.8c1.4-1.4,1.4-3.7,0-5l-0.2-0.2l2.1-2.1c0.2-0.2,0.2-0.5,0-0.7
			C-277.3,396.5-277.7,396.5-277.9,396.6z M-279.8,404l-3.8,3.8c-1,1-2.6,1-3.6,0l-1.1-1.1c-1-1-1-2.6,0-3.6l3.8-3.8
			c0.5-0.5,1.2-0.7,1.8-0.7s1.3,0.2,1.8,0.7l0.2,0.2l-1.2,1.2c-0.2,0.2-0.2,0.5,0,0.7c0.1,0.1,0.2,0.1,0.4,0.1c0.1,0,0.3,0,0.4-0.1
			l1.2-1.2l0.2,0.2C-278.8,401.3-278.8,403-279.8,404z M-269.7,392.4c0.1,0,0.1,0.1,0.2,0.1c0.2,0,0.4-0.1,0.4-0.3l3-6
			c0.1-0.2,0-0.5-0.2-0.7c-0.2-0.1-0.5,0-0.7,0.2l-3,6C-270.1,392-270,392.3-269.7,392.4z M-279.9,392.2c0.1,0.2,0.3,0.3,0.4,0.3
			c0.1,0,0.2,0,0.2-0.1c0.2-0.1,0.3-0.4,0.2-0.7l-3-6c-0.1-0.2-0.4-0.3-0.7-0.2c-0.2,0.1-0.3,0.4-0.2,0.7L-279.9,392.2z M-261,402.3
			l-3.8-3.8c-1.4-1.4-3.6-1.4-5,0l-0.2,0.2l-2.1-2.1c-0.2-0.2-0.5-0.2-0.7,0s-0.2,0.5,0,0.7l2.1,2.1l-0.2,0.2c-1.4,1.4-1.4,3.7,0,5
			l3.8,3.8c0.7,0.7,1.6,1,2.5,1c0.9,0,1.8-0.3,2.5-1l1.1-1.1C-259.7,406-259.7,403.7-261,402.3z M-261.8,406.7l-1.1,1.1
			c-1,1-2.6,1-3.6,0l-3.8-3.8c-1-1-1-2.6,0-3.6l0.2-0.2l1.2,1.2c0.1,0.1,0.2,0.1,0.4,0.1c0.1,0,0.3,0,0.4-0.1c0.2-0.2,0.2-0.5,0-0.7
			l-1.2-1.2l0.2-0.2c0.5-0.5,1.2-0.7,1.8-0.7c0.7,0,1.3,0.2,1.8,0.7l3.8,3.8C-260.8,404-260.8,405.7-261.8,406.7z M-277,384.9
			c-0.1-0.3-0.3-0.4-0.6-0.4c-0.3,0.1-0.4,0.3-0.4,0.6l1.5,6c0.1,0.2,0.3,0.4,0.5,0.4c0,0,0.1,0,0.1,0c0.3-0.1,0.4-0.3,0.4-0.6
			L-277,384.9z M-272.5,391.1l1.5-6c0.1-0.3-0.1-0.5-0.4-0.6c-0.3-0.1-0.5,0.1-0.6,0.4l-1.5,6c-0.1,0.3,0.1,0.5,0.4,0.6
			c0,0,0.1,0,0.1,0C-272.8,391.5-272.6,391.4-272.5,391.1z"/>
	</g>
</g>
</svg>
